Sun Feb  1 15:33:48 UTC 2015
Try,OS,Processor,Memory,Memory Free,Swap,Swap Free,Disk,Capacity,UnixBench-Index,,DD1,fdatasync 1M-256(256 MB),DD2,fdatasync 64k-4k(256 MB),DD3,dsync 1M-256(256 MB),DD4,dsync 64k-4k(256 MB),,IOP1min,IOP1avg,IOP1max,IOP1mdev,IOP2min,IOP2avg,IOP2max,IOP2mdev,IOP3min,IOP3avg,IOP3max,IOP3mdev,IOP4min,IOP4avg,IOP4max,IOP4mdev,,Netperf-TCP,Netperf-UDP,,Sysbench-Transac,Transac/sec,
1,Ubuntu 14.04.1 LTS,Intel(R) Xeon(R) CPU E5-2670 v2 @ 2.50GHz,1016292 kB,181444 kB,0 kB,0 kB,/dev/xvda,8589 MB,0,,0,0,0,0,,0,0,0,0,,345.10,457.59,,0
2,Ubuntu 14.04.1 LTS,Intel(R) Xeon(R) CPU E5-2670 v2 @ 2.50GHz,1016292 kB,181352 kB,0 kB,0 kB,/dev/xvda,8589 MB,0,,0,0,0,0,,0,0,0,0,,347.95,458.64,,0
3,Ubuntu 14.04.1 LTS,Intel(R) Xeon(R) CPU E5-2670 v2 @ 2.50GHz,1016292 kB,181296 kB,0 kB,0 kB,/dev/xvda,8589 MB,0,,0,0,0,0,,0,0,0,0,,345.93,465.45,,0
4,Ubuntu 14.04.1 LTS,Intel(R) Xeon(R) CPU E5-2670 v2 @ 2.50GHz,1016292 kB,181288 kB,0 kB,0 kB,/dev/xvda,8589 MB,0,,0,0,0,0,,0,0,0,0,,339.42,459.62,,0
5,Ubuntu 14.04.1 LTS,Intel(R) Xeon(R) CPU E5-2670 v2 @ 2.50GHz,1016292 kB,181152 kB,0 kB,0 kB,/dev/xvda,8589 MB,0,,0,0,0,0,,0,0,0,0,,287.86,62.08,,0
Sun Feb  1 15:43:53 UTC 2015
