Request per sec/ Number of clients -- Weighttp
0,1,,,40,,,80,,,120,,,160,,,200,,,240,,,280,,,320,,,360,,,400
1,8.79,1237,14285,8.562,1167,13475,8.784,1138,12971,11.134,898,9840,9.660,1035,11479,9.231,1083,11594,11.13,907,9715,11.996,833,8806,17.388,575,6167,13.596,735,7808,13.662,731,7848
2,8.234,1214,14015,9.835,1016,11721,8.801,1136,12828,10.746,930,10181,11.858,843,8715,10.564,946,10101,13.814,723,7817,9.488,1053,11166,17.677,565,6157,13.599,735,7861,13.369,747,8016
3,6.573,1521,17558,6.538,1529,17634,7.54,1417,16259,7.423,1347,15392,7.175,1393,15164,7.966,1255,13622,9.175,1089,11483,8.122,1231,13070,14.746,678,7252,13.329,750,7953,13.369,747,8115
4,6.582,1519,17533,6.690,1494,17250,6.941,1440,16124,8.74,1238,13466,9.525,1049,11046,7.430,1345,14830,9.463,1056,11675,7.250,1379,15044,11.489,870,9387,13.392,746,7797,26.828,372,4066
5,6.522,1533,17695,6.604,1514,17459,6.902,1448,16678,6.920,1444,16634,8.408,1189,12963,7.499,1333,14215,9.494,1053,11535,8.530,1172,12505,13.557,737,7933,13.585,736,8075,13.634,733,7876
